{
    "name": "MPI Demo",
    "description": "MPI Demo",
    "author": "Me",
    "licensed": false,
    "appdefversion": 2,
    "classifications": [
    "System"
    ],
    "machines": [
    "*"
    ],
    "vault-types": [
    "FILE",
    "BLOCK",
    "BLOCK_ARRAY",
    "OBJECT"
    ],
    "commands": {
        "mpi_app": {
            "path": "/my_mpi_app",
            "name": "Execute a very basic MPI app",
            "description": "MPI basic app to get ranks and hosts",
            "parameters": {}
        },
        "mpi_webshell": {
            "path": "/usr/bin/bash",
            "name": "Webshell with MPI",
            "description": "MPI Webshell",
            "webshell": true,
            "parameters": {}
        }
    },
    "image": {
        "data": "",
        "type": "image/png"
    }
}
    